Korean dyads - analysis of lexical data
…
# Make into long format with the datives:

lex_dative <- pivot_longer(lex_dative,
                           cols = dative_eykey:dative_hanthey,
                           values_to = 'n',
                           names_to = 'DativeType') %>% 
  mutate(DativeType = str_replace(DativeType, 'dative_', ''))

# Check:

lex_dative

## # A tibble: 280 x 6
##       ID Condition Task     LogDur DativeType     n
##    <dbl> <chr>     <chr>     <dbl> <chr>      <dbl>
##  1     1 friend    Movie      2.53 eykey          0
##  2     1 friend    Movie      2.53 hanthey        2
##  3     1 friend    Tweety     2.18 eykey          0
##  4     1 friend    Tweety     2.18 hanthey        0
##  5     1 friend    RolePlay   2.19 eykey          0
##  6     1 friend    RolePlay   2.19 hanthey        1
##  7     1 friend    Map1       2.52 eykey          0
##  8     1 friend    Map1       2.52 hanthey        2
##  9     1 friend    Map2       2.31 eykey          0
## 10     1 friend    Map2       2.31 hanthey        0
## #  with 270 more rows
…
# Make into long format with the datives:

lex_com <- pivot_longer(lex_com,
                        cols = kwa:hago_lang,
                        values_to = 'n',
                        names_to = 'ComitativeType')

# Check:

lex_com

## # A tibble: 280 x 6
##       ID Condition Task     LogDur ComitativeType     n
##    <dbl> <chr>     <chr>     <dbl> <chr>          <dbl>
##  1     1 friend    Movie      2.53 kwa                0
##  2     1 friend    Movie      2.53 hago_lang          0
##  3     1 friend    Tweety     2.18 kwa                0
##  4     1 friend    Tweety     2.18 hago_lang          0
##  5     1 friend    RolePlay   2.19 kwa                0
##  6     1 friend    RolePlay   2.19 hago_lang          0
##  7     1 friend    Map1       2.52 kwa                0
##  8     1 friend    Map1       2.52 hago_lang          0
##  9     1 friend    Map2       2.31 kwa                0
## 10     1 friend    Map2       2.31 hago_lang          0
## #  with 270 more rows
…
Theres a number of 0s, which doesnt work for binomial models. So well do a subjects-only analysis in this case:

lex_sub <- lex %>% group_by(ID, Condition, Task) %>% 
  summarize(dative_n = sum(dative_n),
            dative_eykey = sum(dative_eykey),
            com_n = sum(com_n),
            kwa = sum(kwa))

## `summarise()` regrouping output by 'ID', 'Condition' (override with `.groups` argument)

lex_sub

## # A tibble: 140 x 7
## # Groups:   ID, Condition [28]
##       ID Condition Task     dative_n dative_eykey com_n   kwa
##    <dbl> <chr>     <chr>       <dbl>        <dbl> <dbl> <dbl>
##  1     1 friend    Map1            2            0     0     0
##  2     1 friend    Map2            0            0     0     0
##  3     1 friend    Movie           2            0     0     0
##  4     1 friend    RolePlay        1            0     0     0
##  5     1 friend    Tweety          0            0     0     0
##  6     1 professor Map1            0            0     0     0
##  7     1 professor Map2            0            0     0     0
##  8     1 professor Movie           0            0     0     0
##  9     1 professor RolePlay        2            2     0     0
## 10     1 professor Tweety          0            0     0     0
## #  with 130 more rows
…
